<?xml version="1.0" encoding="UTF-8" standalone="no"?>
<svg
   xmlns:dc="http://purl.org/dc/elements/1.1/"
   xmlns:cc="http://creativecommons.org/ns#"
   xmlns:rdf="http://www.w3.org/1999/02/22-rdf-syntax-ns#"
   xmlns:svg="http://www.w3.org/2000/svg"
   xmlns="http://www.w3.org/2000/svg"
   xmlns:sodipodi="http://sodipodi.sourceforge.net/DTD/sodipodi-0.dtd"
   xmlns:inkscape="http://www.inkscape.org/namespaces/inkscape"
   version="1.1"
   id="Capa_1"
   x="0px"
   y="0px"
   viewBox="0 0 256 256"
   xml:space="preserve"
   sodipodi:docname="com.besixplus.pausactiva_lineal.svg"
   inkscape:export-filename="/home/klascano/basura/icon2/laptop (1).png"
   inkscape:export-xdpi="96"
   inkscape:export-ydpi="96"
   inkscape:version="1.0.1 (3bc2e813f5, 2020-09-07)"
   width="256"
   height="256"><metadata
   id="metadata49"><rdf:RDF><cc:Work
       rdf:about=""><dc:format>image/svg+xml</dc:format><dc:type
         rdf:resource="http://purl.org/dc/dcmitype/StillImage" /><dc:title></dc:title></cc:Work></rdf:RDF></metadata><defs
   id="defs47" /><sodipodi:namedview
   pagecolor="#ffffff"
   bordercolor="#666666"
   borderopacity="1"
   objecttolerance="10"
   gridtolerance="10"
   guidetolerance="10"
   inkscape:pageopacity="0"
   inkscape:pageshadow="2"
   inkscape:window-width="1600"
   inkscape:window-height="834"
   id="namedview45"
   showgrid="false"
   inkscape:zoom="1.1953125"
   inkscape:cx="132.08167"
   inkscape:cy="256"
   inkscape:window-x="0"
   inkscape:window-y="30"
   inkscape:window-maximized="1"
   inkscape:current-layer="Capa_1"
   inkscape:document-rotation="0"
   units="px"
   width="256mm" />

















<g
   id="g80"
   transform="matrix(0.5,0,0,0.5,-2.5e-4,0)"><g
     id="g6">
	<g
   id="g4">
		<path
   d="M 443.395,497 H 428.12 l 6.435,-160.662 c 0.966,-24.127 -13.521,-46.175 -36.049,-54.863 -0.087,-0.034 -0.176,-0.066 -0.265,-0.097 l -77.707,-26.66 v -39.1 c 11.506,-12.141 19.679,-27.595 22.883,-45.036 0.043,-0.202 0.393,-0.542 0.507,-0.585 2.145,0.157 4.32,0.014 6.464,-0.424 11.027,-2.258 19.031,-12.51 19.031,-24.377 v -6.349 c 0,-10.673 -6.701,-19.994 -16.295,-23.261 V 97.123 C 353.123,43.569 309.555,0 256,0 202.446,0 158.877,43.569 158.877,97.123 v 18.417 c -9.609,3.2 -16.295,12.533 -16.295,23.401 v 6.253 c 0,11.868 8.004,22.12 19.032,24.377 2.144,0.439 4.318,0.582 6.369,0.421 0.209,0.045 0.558,0.386 0.602,0.587 3.203,17.442 11.377,32.896 22.883,45.037 v 39.1 l -77.707,26.66 c -0.089,0.03 -0.177,0.063 -0.265,0.097 -22.528,8.688 -37.015,30.736 -36.049,54.863 L 83.881,497 H 68.607 c -4.142,0 -7.5,3.358 -7.5,7.5 0,4.142 3.358,7.5 7.5,7.5 h 374.787 c 4.142,0 7.5,-3.358 7.5,-7.5 -0.001,-4.142 -3.358,-7.5 -7.499,-7.5 z M 183.337,167.871 c -1.425,-7.766 -8.617,-13.403 -16.357,-12.834 -0.772,0.057 -1.564,0.003 -2.358,-0.16 -4.014,-0.821 -7.04,-4.984 -7.04,-9.682 v -6.253 c 0,-4.686 3.072,-8.759 7.146,-9.474 2.712,-0.476 4.783,0.3 6.043,1.035 3.578,2.086 8.17,0.878 10.257,-2.701 2.086,-3.578 0.877,-8.17 -2.701,-10.257 -1.412,-0.823 -2.908,-1.473 -4.449,-1.984 V 97.123 C 173.878,51.84 210.717,15 256,15 c 45.283,0 82.123,36.84 82.123,82.123 v 17.971 c -0.442,0.088 -0.885,0.175 -1.323,0.279 -4.032,0.949 -6.53,4.987 -5.581,9.019 0.95,4.032 4.985,6.531 9.02,5.582 2.819,-0.664 5.727,-0.747 7.031,-0.487 4.076,0.811 7.149,4.834 7.149,9.359 v 6.349 c 0,4.698 -3.026,8.861 -7.04,9.682 -0.794,0.163 -1.588,0.217 -2.358,0.16 -7.737,-0.573 -14.932,5.068 -16.358,12.834 -6.44,35.065 -37,60.516 -72.663,60.516 -35.663,0 -66.222,-25.45 -72.663,-60.516 z m 122.197,60.421 v 36.903 c -10.313,17.297 -29,28.117 -49.533,28.117 -20.533,0 -39.22,-10.819 -49.533,-28.117 v -36.903 c 14.245,9.567 31.331,15.095 49.533,15.095 18.202,0 35.288,-5.527 49.533,-15.095 z M 98.894,497.001 92.435,335.738 c -0.202,-5.034 0.516,-9.942 2.022,-14.539 l 43.141,42.911 c -1.634,3.52 -2.415,7.422 -2.196,11.35 l 6.337,114.065 c 0.146,2.634 0.723,5.146 1.65,7.476 z m 262.728,-122.374 -6.337,114.066 c -0.259,4.658 -4.116,8.307 -8.782,8.307 H 165.498 c -4.666,0 -8.523,-3.649 -8.782,-8.307 l -6.337,-114.066 c -0.135,-2.438 0.714,-4.758 2.392,-6.532 1.678,-1.774 3.948,-2.751 6.39,-2.751 h 193.68 c 2.442,0 4.711,0.977 6.39,2.751 1.678,1.774 2.527,4.094 2.391,6.532 z m -8.781,-24.282 h -193.68 c -3.954,0 -7.828,1.006 -11.265,2.851 l -45.88,-45.636 c 4.379,-5.247 10.082,-9.444 16.752,-12.041 L 161,281.03 c 17.45,36.493 54.336,59.872 95.001,59.872 14.646,0 28.823,-2.952 42.138,-8.774 3.795,-1.66 5.526,-6.082 3.867,-9.877 -1.66,-3.795 -6.083,-5.526 -9.876,-3.867 -11.408,4.989 -23.564,7.518 -36.128,7.518 -34.286,0 -65.428,-19.388 -80.69,-49.782 l 16.822,-5.771 c 12.637,23.273 37.003,37.964 63.867,37.964 26.864,0 51.23,-14.69 63.867,-37.964 l 16.825,5.772 c -5.077,10.074 -12.086,19.255 -20.512,26.796 -3.086,2.763 -3.349,7.504 -0.586,10.59 1.481,1.655 3.532,2.498 5.591,2.498 1.781,0 3.568,-0.63 5,-1.912 10.326,-9.242 18.83,-20.602 24.809,-33.066 l 42.24,14.492 c 6.673,2.599 12.379,6.798 16.759,12.049 l -45.717,45.717 c -3.48,-1.903 -7.416,-2.94 -11.436,-2.94 z M 419.565,335.738 413.107,497 h -44.495 c 0.928,-2.33 1.504,-4.842 1.65,-7.475 l 6.337,-114.065 c 0.215,-3.861 -0.537,-7.698 -2.115,-11.171 l 43.067,-43.067 c 1.501,4.59 2.215,9.491 2.014,14.516 z"
   id="path2" />
	</g>
</g><g
     id="g14">
</g><g
     id="g16">
</g><g
     id="g18">
</g><g
     id="g20">
</g><g
     id="g22">
</g><g
     id="g24">
</g><g
     id="g26">
</g><g
     id="g28">
</g><g
     id="g30">
</g><g
     id="g32">
</g><g
     id="g34">
</g><g
     id="g36">
</g><g
     id="g38">
</g><g
     id="g40">
</g><g
     id="g42">
</g><g
     id="g225"
     transform="matrix(0.25472966,0,0,0.25472966,192.12751,363.80943)"><g
       id="g168">
	<g
   id="g166">
		<path
   d="m 480.56,206.698 h -7.853 v -21.355 c 0,-24.625 -20.034,-44.658 -44.659,-44.658 h -11.139 c -4.727,-17.548 -20.771,-30.503 -39.792,-30.503 -22.724,0 -41.211,18.486 -41.211,41.21 v 68.197 H 176.093 v -68.197 c 0,-22.724 -18.487,-41.21 -41.21,-41.21 -19.02,0 -35.064,12.955 -39.791,30.503 h -11.14 c -24.625,0 -44.659,20.033 -44.659,44.658 v 21.355 H 31.44 C 14.104,206.698 0,220.803 0,238.138 v 35.609 c 0,17.336 14.104,31.439 31.44,31.439 h 7.854 v 21.469 c 0,24.625 20.034,44.658 44.659,44.658 h 11.14 c 4.727,17.548 20.771,30.503 39.791,30.503 22.724,0 41.21,-18.486 41.21,-41.21 v -68.197 h 136.999 c 4.143,0 7.5,-3.357 7.5,-7.5 0,-4.143 -3.357,-7.5 -7.5,-7.5 h -137 v -42.821 h 159.813 v 126.019 c 0,22.724 18.487,41.21 41.211,41.21 19.021,0 35.065,-12.955 39.792,-30.503 h 11.139 c 24.625,0 44.659,-20.033 44.659,-44.658 v -21.469 h 7.853 c 17.336,0 31.44,-14.103 31.44,-31.439 v -35.609 c 0,-17.337 -14.104,-31.441 -31.44,-31.441 z M 39.294,290.188 H 31.44 v -10e-4 C 22.375,290.187 15,282.812 15,273.748 v -35.609 c 0,-9.065 7.375,-16.44 16.44,-16.44 h 7.854 z m 121.799,70.419 c 0,14.452 -11.758,26.21 -26.21,26.21 -14.453,0 -26.21,-11.758 -26.21,-26.21 V 209.283 c 0,-4.143 -3.358,-7.5 -7.5,-7.5 -4.142,0 -7.5,3.357 -7.5,7.5 v 147.032 h -9.72 c -16.354,0 -29.659,-13.305 -29.659,-29.658 V 185.342 c 0,-16.354 13.305,-29.658 29.659,-29.658 h 9.72 v 20.372 c 0,4.143 3.358,7.5 7.5,7.5 4.142,0 7.5,-3.357 7.5,-7.5 v -24.665 c 0,-14.452 11.758,-26.21 26.21,-26.21 14.453,0 26.21,11.758 26.21,26.21 z m 242.235,0 c 0,14.452 -11.758,26.21 -26.211,26.21 -14.453,0 -26.211,-11.758 -26.211,-26.21 V 151.391 c 0,-14.452 11.758,-26.21 26.211,-26.21 14.453,0 26.211,11.758 26.211,26.21 z m 54.379,-33.951 c 0,16.353 -13.305,29.658 -29.659,29.658 h -9.72 v -200.63 h 9.72 c 16.354,0 29.659,13.305 29.659,29.658 z M 497,273.748 c 0,9.064 -7.375,16.439 -16.44,16.439 h -7.853 v -68.489 h 7.853 c 9.065,0 16.44,7.375 16.44,16.44 z"
   id="path164" />
	</g>
</g><g
       id="g170">
</g><g
       id="g172">
</g><g
       id="g174">
</g><g
       id="g176">
</g><g
       id="g178">
</g><g
       id="g180">
</g><g
       id="g182">
</g><g
       id="g184">
</g><g
       id="g186">
</g><g
       id="g188">
</g><g
       id="g190">
</g><g
       id="g192">
</g><g
       id="g194">
</g><g
       id="g196">
</g><g
       id="g198">
</g></g></g></svg>
