<?xml version="1.0" encoding="UTF-8" standalone="no"?>
<svg
   xmlns:dc="http://purl.org/dc/elements/1.1/"
   xmlns:cc="http://creativecommons.org/ns#"
   xmlns:rdf="http://www.w3.org/1999/02/22-rdf-syntax-ns#"
   xmlns:svg="http://www.w3.org/2000/svg"
   xmlns="http://www.w3.org/2000/svg"
   xmlns:sodipodi="http://sodipodi.sourceforge.net/DTD/sodipodi-0.dtd"
   xmlns:inkscape="http://www.inkscape.org/namespaces/inkscape"
   version="1.1"
   id="Capa_1"
   x="0px"
   y="0px"
   viewBox="0 0 256 256"
   xml:space="preserve"
   sodipodi:docname="pausactiva.svg"
   inkscape:version="1.0.1 (3bc2e813f5, 2020-09-07)"
   inkscape:export-filename="/home/klascano/basura/icon2/laptop0.png"
   inkscape:export-xdpi="96"
   inkscape:export-ydpi="96"
   width="256"
   height="256"><metadata
   id="metadata65"><rdf:RDF><cc:Work
       rdf:about=""><dc:format>image/svg+xml</dc:format><dc:type
         rdf:resource="http://purl.org/dc/dcmitype/StillImage" /><dc:title></dc:title></cc:Work></rdf:RDF></metadata><defs
   id="defs63" /><sodipodi:namedview
   pagecolor="#ffffff"
   bordercolor="#666666"
   borderopacity="1"
   objecttolerance="10"
   gridtolerance="10"
   guidetolerance="10"
   inkscape:pageopacity="0"
   inkscape:pageshadow="2"
   inkscape:window-width="1600"
   inkscape:window-height="834"
   id="namedview61"
   showgrid="false"
   inkscape:zoom="0.84521357"
   inkscape:cx="490.2082"
   inkscape:cy="252.85437"
   inkscape:window-x="0"
   inkscape:window-y="30"
   inkscape:window-maximized="1"
   inkscape:current-layer="Capa_1"
   inkscape:document-rotation="0" />












<g
   id="g30"
   transform="matrix(0.5,0,0,0.5,127.99975,128)">
</g>
<g
   id="g32"
   transform="matrix(0.5,0,0,0.5,127.99975,128)">
</g>
<g
   id="g34"
   transform="matrix(0.5,0,0,0.5,127.99975,128)">
</g>
<g
   id="g36"
   transform="matrix(0.5,0,0,0.5,127.99975,128)">
</g>
<g
   id="g38"
   transform="matrix(0.5,0,0,0.5,127.99975,128)">
</g>
<g
   id="g40"
   transform="matrix(0.5,0,0,0.5,127.99975,128)">
</g>
<g
   id="g42"
   transform="matrix(0.5,0,0,0.5,127.99975,128)">
</g>
<g
   id="g44"
   transform="matrix(0.5,0,0,0.5,127.99975,128)">
</g>
<g
   id="g46"
   transform="matrix(0.5,0,0,0.5,127.99975,128)">
</g>
<g
   id="g48"
   transform="matrix(0.5,0,0,0.5,127.99975,128)">
</g>
<g
   id="g50"
   transform="matrix(0.5,0,0,0.5,127.99975,128)">
</g>
<g
   id="g52"
   transform="matrix(0.5,0,0,0.5,127.99975,128)">
</g>
<g
   id="g54"
   transform="matrix(0.5,0,0,0.5,127.99975,128)">
</g>
<g
   id="g56"
   transform="matrix(0.5,0,0,0.5,127.99975,128)">
</g>
<g
   id="g58"
   transform="matrix(0.5,0,0,0.5,127.99975,128)">
</g>
<g
   id="g105"
   transform="translate(-127.9995,-128)"><rect
     x="228.71475"
     y="228.72"
     style="fill:#b48764;stroke-width:0.5"
     width="58.755001"
     height="50.360001"
     id="rect2" /><path
     style="fill:#966d50;stroke-width:0.5"
     d="m 228.71575,244.3925 c 8.3225,5.9935 18.4865,9.509 29.377,9.509 10.8905,0 21.0545,-3.515 29.377,-9.509 V 228.721 h -58.754 z"
     id="path4" /><path
     style="fill:#5d5360;stroke-width:0.5"
     d="m 342.90125,379.8035 3.3075,-82.5765 c 0.4315,-10.7705 -6.041,-20.6215 -16.0985,-24.501 l -38.2035,-13.107 c -1.554,-0.533 -3.3275,0.073 -4.0935,1.526 -5.624,10.6655 -16.8195,17.937 -29.715,17.937 -12.8955,0 -24.091,-7.2715 -29.715,-17.937 -0.766,-1.453 -2.5395,-2.059 -4.0935,-1.526 l -38.2035,13.107 c -10.0575,3.879 -16.53,13.73 -16.0985,24.501 l 3.3075,82.5765 z"
     id="path6" /><g
     id="g12"
     transform="matrix(0.5,0,0,0.5,127.99975,128)">
	<path
   style="fill:#6f6571"
   d="M 159.475,377.615 91.521,310.023 c -5.152,8.342 -7.958,18.154 -7.547,28.43 l 6.615,165.153 h 68.886 z"
   id="path8" />
	<path
   style="fill:#6f6571"
   d="m 360.918,377.615 67.954,-67.592 c 5.152,8.342 7.958,18.154 7.547,28.43 l -6.615,165.153 h -68.886 z"
   id="path10" />
</g><path
     style="fill:#c39772;stroke-width:0.5"
     d="M 304.26225,186.7545 V 174.164 c 0,-25.4955 -20.6685,-46.164 -46.164,-46.164 -25.4955,0 -46.164,20.6685 -46.164,46.164 v 12.59 h -0.1475 c -0.003,0 -0.004,0.002 -0.007,0.002 -0.46,0.008 -0.9295,0.057 -1.408,0.1495 -4.0845,0.789 -6.8365,4.694 -6.8365,8.854 v 3.041 c 0,4.014 2.57,7.801 6.479,8.7135 0.8805,0.2055 1.7375,0.264 2.558,0.1985 2.0865,-0.1665 3.9085,1.352 4.284,3.411 3.568,19.554 20.6515,34.385 41.2365,34.385 20.585,0 37.6685,-14.831 41.2365,-34.385 0.362,-1.983 2.074,-3.4275 4.063,-3.3855 h 0.8645 c 4.6355,0 8.3935,-3.758 8.3935,-8.3935 v -4.1965 c -5e-4,-4.634 -3.7555,-8.39 -8.3885,-8.393 z"
     id="path14" /><path
     style="fill:#b48764;stroke-width:0.5"
     d="m 232.91775,203.541 v -33.574 c 0,-18.587 11.009,-34.5655 26.84,-41.8835 -0.5555,-0.0195 -1.0995,-0.0835 -1.6595,-0.0835 -25.4955,0 -46.164,20.6685 -46.164,46.164 v 12.59 h -0.1475 c -0.003,0 -0.004,0.002 -0.007,0.002 -0.46,0.008 -0.9295,0.057 -1.408,0.1495 -4.0845,0.789 -6.8365,4.694 -6.8365,8.854 v 3.041 c 0,4.014 2.57,7.801 6.479,8.7135 0.8805,0.2055 1.7375,0.264 2.558,0.1985 2.0865,-0.1665 3.9085,1.352 4.284,3.411 3.568,19.554 20.6515,34.385 41.2365,34.385 0.567,0 1.1205,-0.0535 1.682,-0.0755 -15.841,-7.314 -26.8575,-23.298 -26.8575,-41.8915 z"
     id="path16" /><path
     style="fill:#c39772;stroke-width:0.5"
     d="m 348.32775,384 h -184.656 c -2.3195,0 -4.1965,-1.879 -4.1965,-4.1965 0,-2.3175 1.877,-4.1965 4.1965,-4.1965 h 184.6555 c 2.3195,0 4.1965,1.879 4.1965,4.1965 5e-4,2.3175 -1.876,4.1965 -4.196,4.1965 z"
     id="path18" /><path
     style="fill:#dbd9dc;stroke-width:0.5"
     d="m 302.64275,375.6065 h -93.286 c -4.444,0 -8.118,-3.464 -8.379,-7.9005 l -3.2095,-54.5575 c -0.2835,-4.821 3.5495,-8.8865 8.379,-8.8865 h 99.705 c 4.8295,0 8.6625,4.0655 8.379,8.8865 l -3.2095,54.5575 c -0.261,4.4365 -3.9345,7.9005 -8.379,7.9005 z"
     id="path20" /><path
     style="fill:#6f6571;stroke-width:0.5"
     d="m 215.28125,262.7095 c 6.8245,16.969 23.407,28.963 42.817,28.963 19.41,0 35.993,-11.994 42.817,-28.963 l -9.0085,-3.0905 c -1.554,-0.533 -3.3275,0.073 -4.094,1.526 -5.6235,10.6655 -16.8195,17.937 -29.715,17.937 -12.8955,0 -24.091,-7.272 -29.715,-17.937 -0.7665,-1.453 -2.5395,-2.059 -4.094,-1.526 z"
     id="path24" /><path
     style="fill:#b48764;stroke-width:0.5"
     d="m 258.09825,128 c -25.4955,0 -46.164,20.6685 -46.164,46.164 v 12.59 h 5.552 c 1.716,0 3.2595,-1.045 3.897,-2.638 l 5.2275,-13.0695 c 1.2745,-3.1865 4.361,-5.276 7.793,-5.276 h 47.389 c 3.432,0 6.5185,2.0895 7.793,5.276 l 5.2275,13.0695 c 0.6375,1.593 2.1805,2.638 3.897,2.638 h 5.552 v -12.59 c 0,-25.4955 -20.6685,-46.164 -46.164,-46.164 z"
     id="path26" /><path
     style="fill:#966d50;stroke-width:0.5"
     d="m 211.93425,174.164 v 12.59 h 5.552 c 1.716,0 3.2595,-1.045 3.897,-2.638 l 5.2275,-13.0695 c 1.1085,-2.771 3.6115,-4.6205 6.4955,-5.0795 1.4525,-16.8565 11.97,-31.097 26.6515,-37.883 -0.5555,-0.02 -1.0995,-0.084 -1.6595,-0.084 -25.496,0 -46.164,20.6685 -46.164,46.164 z"
     id="path28" /><g
     id="g239"
     transform="matrix(0.125,0,0,0.12040242,223.99975,310.5703)"><rect
       x="118.151"
       y="226.218"
       style="fill:#d8d7da"
       width="268.06299"
       height="59.566002"
       id="rect148" /><path
       style="fill:#999999;stroke-width:1.59942"
       d="M 387.29026,226.217 H 118.157 v 59.566 h 269.05396 c -17.18552,-24.94 -8.9816,-46.504 0.0793,-59.566 z"
       id="path150" /><path
       style="fill:#92d8ff"
       d="m 438.238,298.947 h 49.099 c 13.621,0 24.663,-11.041 24.663,-24.663 V 237.6 c 0,-13.621 -11.041,-24.663 -24.663,-24.663 h -49.099 z"
       id="path152" /><path
       style="fill:#68686d"
       d="m 380.772,367.069 h 52.468 c 21.141,0 38.281,-17.139 38.281,-38.28 V 183.212 c 0,-21.141 -17.139,-38.281 -38.281,-38.281 h -52.468 z"
       id="path154" /><path
       style="fill:#4a4a51"
       d="m 438.238,145.266 v 221.468 c -1.637,0.213 -3.303,0.336 -4.997,0.336 H 380.773 V 144.933 h 52.468 c 1.694,-0.001 3.36,0.12 4.997,0.333 z"
       id="path156" /><path
       style="fill:#898890"
       d="m 380.772,398.493 v 0 c 19.101,0 34.728,-15.628 34.728,-34.728 v -215.53 c 0,-19.101 -15.628,-34.728 -34.728,-34.728 v 0 c -19.101,0 -34.728,15.628 -34.728,34.728 v 215.529 c 0.001,19.101 15.628,34.729 34.728,34.729 z"
       id="path158" /><path
       style="fill:#92d8ff"
       d="M 73.762,298.947 H 24.663 C 11.041,298.947 0,287.905 0,274.284 V 237.6 c 0,-13.621 11.041,-24.663 24.663,-24.663 h 49.099 z"
       id="path160" /><path
       style="fill:#68686d"
       d="M 131.228,367.069 H 78.759 c -21.141,0 -38.28,-17.139 -38.28,-38.28 V 183.212 c 0,-21.141 17.139,-38.281 38.28,-38.281 h 52.468 v 222.138 z"
       id="path162" /><path
       style="fill:#4a4a51"
       d="m 73.762,145.266 v 221.468 c 1.637,0.213 3.303,0.336 4.997,0.336 h 52.468 V 144.933 H 78.759 c -1.694,-0.001 -3.36,0.12 -4.997,0.333 z"
       id="path164" /><path
       style="fill:#898890"
       d="m 131.228,398.493 v 0 c -19.101,0 -34.728,-15.628 -34.728,-34.728 v -215.53 c 0,-19.101 15.628,-34.728 34.728,-34.728 v 0 c 19.101,0 34.728,15.628 34.728,34.728 v 215.529 c -10e-4,19.101 -15.628,34.729 -34.728,34.729 z"
       id="path166" /><g
       id="g172">
	<path
   style="fill:#68686d"
   d="m 128.236,363.766 v -215.53 c 0,-13.39 7.686,-25.066 18.86,-30.855 -4.765,-2.468 -10.159,-3.873 -15.868,-3.873 v 0 c -19.101,0 -34.728,15.628 -34.728,34.728 v 215.529 c 0,19.101 15.628,34.728 34.728,34.728 v 0 c 5.709,0 11.104,-1.405 15.868,-3.874 -11.174,-5.788 -18.86,-17.463 -18.86,-30.853 z"
   id="path168" />
	<path
   style="fill:#68686d"
   d="m 377.781,363.766 v -215.53 c 0,-13.39 7.686,-25.066 18.86,-30.855 -4.765,-2.468 -10.159,-3.873 -15.868,-3.873 v 0 c -19.101,0 -34.728,15.628 -34.728,34.728 v 215.529 c 0,19.101 15.628,34.728 34.728,34.728 v 0 c 5.709,0 11.104,-1.405 15.868,-3.874 -11.174,-5.788 -18.86,-17.463 -18.86,-30.853 z"
   id="path170" />
</g><g
       id="g174">
</g><g
       id="g176">
</g><g
       id="g178">
</g><g
       id="g180">
</g><g
       id="g182">
</g><g
       id="g184">
</g><g
       id="g186">
</g><g
       id="g188">
</g><g
       id="g190">
</g><g
       id="g192">
</g><g
       id="g194">
</g><g
       id="g196">
</g><g
       id="g198">
</g><g
       id="g200">
</g><g
       id="g202">
</g></g></g></svg>
